\relax 
\@writefile{toc}{\contentsline {section}{\numberline {1}Big to Small}{1}}
\@writefile{toc}{\contentsline {subsection}{\numberline {1.1}Base Case $M = V$}{1}}
\@writefile{toc}{\contentsline {subsection}{\numberline {1.2}Bang Case $M = !_{e_1}N$}{1}}
\@writefile{toc}{\contentsline {subsection}{\numberline {1.3}Beta Case $M = M_1\ M_2$}{2}}
\@writefile{toc}{\contentsline {subsection}{\numberline {1.4}Beta Box Case $M = let\ u^{A}\ be\ M\ in\ N$}{2}}
\@writefile{toc}{\contentsline {section}{\numberline {2}TI Case $M=\iota (\vartheta )$}{3}}
